<?xml version="1.0"?>
<robot name="r2_c_full_body" xmlns:controller="http://playerstage.sourceforge.net/gazebo/xmlschema/#controller" 
			xmlns:interface="http://playerstage.sourceforge.net/gazebo/xmlschema/#interface" 
			xmlns:sensor="http://playerstage.sourceforge.net/gazebo/xmlschema/#sensor" 
			xmlns:xacro="http://playerstage.sourceforge.net/gazebo/xmlschema/#interface">

  <gazebo>
    <controller:gazebo_ros_p3d name="p3d_base_controller" plugin="libgazebo_ros_p3d.so">
<!--      <robotNamespace>r2sim</robotNamespace>-->
      <bodyName>/r2/robot_base</bodyName>
      <topicName>/r2/robot_base/pose_state</topicName>
      <gaussianNoise>0.0</gaussianNoise>
      <frameName>world</frameName>
      <xyzOffsets>0 0 0</xyzOffsets>
      <rpyOffsets>0 0 0</rpyOffsets>
      <interface:position name="p3d_base_position"/>
    </controller:gazebo_ros_p3d>
    <canonicalBody>/r2/robot_world</canonicalBody>
  </gazebo>

</robot>
