<?xml version="1.0" encoding="utf-8"?>
<COLLADA xmlns="http://www.collada.org/2005/11/COLLADASchema" version="1.4.1">
  <asset>
    <contributor>
      <author>Karl</author>
      <authoring_tool>OpenCOLLADA2011 x64</authoring_tool>
      <comments>
			ColladaMaya export options: 
			bakeTransforms=0;relativePaths=0;copyTextures=0;exportTriangles=1;exportCgfxFileReferences=1;
			isSampling=0;curveConstrainSampling=0;removeStaticCurves=1;exportPolygonMeshes=1;exportLights=0;
			exportCameras=0;exportJointsAndSkin=0;exportAnimations=0;exportInvisibleNodes=0;exportDefaultCameras=0;
			exportTexCoords=1;exportNormals=1;exportNormalsPerVertex=1;exportVertexColors=1;exportVertexColorsPerVertex=1;
			exportTexTangents=0;exportTangents=0;exportReferencedMaterials=0;exportMaterialsOnly=0;
			exportXRefs=1;dereferenceXRefs=1;exportCameraAsLookat=0;cameraXFov=0;cameraYFov=1;doublePrecision=0
		</comments>
      <source_data>file:///C:/Users/Karl/Documents/maya/projects/default/untitled</source_data>
    </contributor>
    <created>2012-06-22T13:18:00</created>
    <modified>2012-06-22T13:18:00</modified>
    <unit name="centimeter" meter="0.01"/>
    <up_axis>Y_UP</up_axis>
  </asset>
  <library_materials>
    <material id="lambert1" name="lambert1">
      <instance_effect url="#lambert1-fx"/>
    </material>
  </library_materials>
  <library_effects>
    <effect id="lambert1-fx">
      <profile_COMMON>
        <technique sid="common">
          <lambert>
            <emission>
              <color>0 0 0 1</color>
            </emission>
            <ambient>
              <color>0 0 0 1</color>
            </ambient>
            <diffuse>
              <color>0.4 0.4 0.4 1</color>
            </diffuse>
            <transparent opaque="RGB_ZERO">
              <color>0 0 0 1</color>
            </transparent>
            <transparency>
              <float>1</float>
            </transparency>
          </lambert>
        </technique>
      </profile_COMMON>
    </effect>
  </library_effects>
  <library_geometries>
    <geometry id="MeshShape" name="MeshShape">
      <mesh>
        <source id="MeshShape-positions" name="MeshShape-positions">
          <float_array id="MeshShape-positions-array" count="552">-0.010999 0 0.004763 -0.010999 0 0.007887 -0.010999 0 0.009944 -0.010999 0 0.026607 -0.007468 0 0 -0.007468 0 0.004763 -0.007468 0 0.007887 -0.007468 0 0.009944 -0.007376 -0.001168 0 -0.007376 -0.001168 0.004763 -0.007376 -0.001168 0.007887 -0.007376 -0.001168 0.009944 -0.007376 0.001168 0 -0.007376 0.001168 0.004763 -0.007376 0.001168 0.007887 -0.007376 0.001168 0.009944 -0.007102 -0.002308 0 -0.007102 -0.002308 0.004763 -0.007102 -0.002308 0.007887 -0.007102 -0.002308 0.009944 -0.007102 0.002308 0 -0.007102 0.002308 0.004763 -0.007102 0.002308 0.007887 -0.007102 0.002308 0.009944 -0.006654 -0.00339 0 -0.006654 -0.00339 0.004763 -0.006654 -0.00339 0.007887 -0.006654 -0.00339 0.009944 -0.006654 0.00339 0 -0.006654 0.00339 0.004763 -0.006654 0.00339 0.007887 -0.006654 0.00339 0.009944 -0.006041 -0.004389 0 -0.006041 -0.004389 0.004763 -0.006041 -0.004389 0.007887 -0.006041 -0.004389 0.009944 -0.006041 0.004389 0 -0.006041 0.004389 0.004763 -0.006041 0.004389 0.007887 -0.006041 0.004389 0.009944 -0.005499 -0.009525 0.004763 -0.005499 -0.009525 0.007887 -0.005499 -0.009525 0.009944 -0.005499 -0.009525 0.026607 -0.005499 0.009525 0.004763 -0.005499 0.009525 0.007887 -0.005499 0.009525 0.009944 -0.005499 0.009525 0.026607 -0.00528 -0.00528 0 -0.00528 -0.00528 0.004763 -0.00528 -0.00528 0.007887 -0.00528 -0.00528 0.009944 -0.00528 0.00528 0 -0.00528 0.00528 0.004763 -0.00528 0.00528 0.007887 -0.00528 0.00528 0.009944 -0.004389 -0.006041 0 -0.004389 -0.006041 0.004763 -0.004389 -0.006041 0.007887 -0.004389 -0.006041 0.009944 -0.004389 0.006041 0 -0.004389 0.006041 0.004763 -0.004389 0.006041 0.007887 -0.004389 0.006041 0.009944 -0.00339 -0.006654 0 -0.00339 -0.006654 0.004763 -0.00339 -0.006654 0.007887 -0.00339 -0.006654 0.009944 -0.00339 0.006654 0 -0.00339 0.006654 0.004763 -0.00339 0.006654 0.007887 -0.00339 0.006654 0.009944 -0.002308 -0.007102 0 -0.002308 -0.007102 0.004763 -0.002308 -0.007102 0.007887 -0.002308 -0.007102 0.009944 -0.002308 0.007102 0 -0.002308 0.007102 0.004763 -0.002308 0.007102 0.007887 -0.002308 0.007102 0.009944 -0.001168 -0.007376 0 -0.001168 -0.007376 0.004763 -0.001168 -0.007376 0.007887 -0.001168 -0.007376 0.009944 -0.001168 0.007376 0 -0.001168 0.007376 0.004763 -0.001168 0.007376 0.007887 -0.001168 0.007376 0.009944 0 -0.007468 0 0 -0.007468 0.004763 0 -0.007468 0.007887 0 -0.007468 0.009944 0 0.007468 0 0 0.007468 0.004763 0 0.007468 0.007887 0 0.007468 0.009944 0.001168 -0.007376 0 0.001168 -0.007376 0.004763 0.001168 -0.007376 0.007887 0.001168 -0.007376 0.009944 0.001168 0.007376 0 0.001168 0.007376 0.004763 0.001168 0.007376 0.007887 0.001168 0.007376 0.009944 0.002308 -0.007102 0 0.002308 -0.007102 0.004763 0.002308 -0.007102 0.007887 0.002308 -0.007102 0.009944 0.002308 0.007102 0 0.002308 0.007102 0.004763 0.002308 0.007102 0.007887 0.002308 0.007102 0.009944 0.00339 -0.006654 0 0.00339 -0.006654 0.004763 0.00339 -0.006654 0.007887 0.00339 -0.006654 0.009944 0.00339 0.006654 0 0.00339 0.006654 0.004763 0.00339 0.006654 0.007887 0.00339 0.006654 0.009944 0.004389 -0.006041 0 0.004389 -0.006041 0.004763 0.004389 -0.006041 0.007887 0.004389 -0.006041 0.009944 0.004389 0.006041 0 0.004389 0.006041 0.004763 0.004389 0.006041 0.007887 0.004389 0.006041 0.009944 0.00528 -0.00528 0 0.00528 -0.00528 0.004763 0.00528 -0.00528 0.007887 0.00528 -0.00528 0.009944 0.00528 0.00528 0 0.00528 0.00528 0.004763 0.00528 0.00528 0.007887 0.00528 0.00528 0.009944 0.005499 -0.009525 0.004763 0.005499 -0.009525 0.007887 0.005499 -0.009525 0.009944 0.005499 -0.009525 0.026607 0.005499 0.009525 0.004763 0.005499 0.009525 0.007887 0.005499 0.009525 0.009944 0.005499 0.009525 0.026607 0.006041 -0.004389 0 0.006041 -0.004389 0.004763 0.006041 -0.004389 0.007887 0.006041 -0.004389 0.009944 0.006041 0.004389 0 0.006041 0.004389 0.004763 0.006041 0.004389 0.007887 0.006041 0.004389 0.009944 0.006654 -0.00339 0 0.006654 -0.00339 0.004763 0.006654 -0.00339 0.007887 0.006654 -0.00339 0.009944 0.006654 0.00339 0 0.006654 0.00339 0.004763 0.006654 0.00339 0.007887 0.006654 0.00339 0.009944 0.007102 -0.002308 0 0.007102 -0.002308 0.004763 0.007102 -0.002308 0.007887 0.007102 -0.002308 0.009944 0.007102 0.002308 0 0.007102 0.002308 0.004763 0.007102 0.002308 0.007887 0.007102 0.002308 0.009944 0.007376 -0.001168 0 0.007376 -0.001168 0.004763 0.007376 -0.001168 0.007887 0.007376 -0.001168 0.009944 0.007376 0.001168 0 0.007376 0.001168 0.004763 0.007376 0.001168 0.007887 0.007376 0.001168 0.009944 0.007468 0 0 0.007468 0 0.004763 0.007468 0 0.007887 0.007468 0 0.009944 0.010999 0 0.004763 0.010999 0 0.007887 0.010999 0 0.009944 0.010999 0 0.026607</float_array>
          <technique_common>
            <accessor source="#MeshShape-positions-array" count="184" stride="3">
              <param name="X" type="float"/>
              <param name="Y" type="float"/>
              <param name="Z" type="float"/>
            </accessor>
          </technique_common>
        </source>
        <source id="MeshShape-normals" name="MeshShape-normals">
          <float_array id="MeshShape-normals-array" count="3276">0.89624 0.023531 -0.442945 0.3261271 -0.008563002 -0.9452872 0.4848201 0.06388 -0.8722781 0.89624 0.023531 -0.442945 0.4848201 0.06388 -0.8722781 0.8881016 0.1648449 -0.4290708 0.8881016 0.1648449 -0.4290708 0.4848201 0.06388 -0.8722781 0.4950539 0.146661 -0.8563949 0.8881016 0.1648449 -0.4290708 0.4950539 0.146661 -0.8563949 0.8694509 0.307887 -0.3863429 0.8694509 0.307887 -0.3863429 0.4950539 0.146661 -0.8563949 0.4962399 0.2367459 -0.8352828 0.8694509 0.307887 -0.3863429 0.4962399 0.2367459 -0.8352828 0.4437779 0.2411959 -0.8630677 0.4437779 0.2411959 -0.8630677 0.4962399 0.2367459 -0.8352828 0.216288 0.148759 -0.9649302 0.4437779 0.2411959 -0.8630677 0.216288 0.148759 -0.9649302 0.7460222 0.5727281 -0.3397551 0.7460222 0.5727281 -0.3397551 0.216288 0.148759 -0.9649302 0.7253452 0.6882652 -0.012861 0.7460222 0.5727281 -0.3397551 0.7253452 0.6882652 -0.012861 0.6296458 0.6635678 -0.4040098 0.6296458 0.6635678 -0.4040098 0.7253452 0.6882652 -0.012861 0.5614769 0.7313668 -0.3870999 0.6296458 0.6635678 -0.4040098 0.5614769 0.7313668 -0.3870999 0.509761 0.7411681 -0.4368221 0.509761 0.7411681 -0.4368221 0.5614769 0.7313668 -0.3870999 0.4774928 0.8785407 -0.012918 0.509761 0.7411681 -0.4368221 0.4774928 0.8785407 -0.012918 0.3863601 0.8098443 -0.4414501 0.3863601 0.8098443 -0.4414501 0.4774928 0.8785407 -0.012918 0.331151 0.9351461 -0.12586 0.3863601 0.8098443 -0.4414501 0.331151 0.9351461 -0.12586 0.2580249 0.8709648 -0.4181429 0.2580249 0.8709648 -0.4181429 0.331151 0.9351461 -0.12586 0.182482 0.9831249 -0.01288 0.2580249 0.8709648 -0.4181429 0.182482 0.9831249 -0.01288 0.121624 0.9230651 -0.364909 0.121624 0.9230651 -0.364909 0.182482 0.9831249 -0.01288 0.018765 0.714681 -0.699199 0.121624 0.9230651 -0.364909 0.018765 0.714681 -0.699199 -0.013287 0.506079 -0.8623849 -0.013287 0.506079 -0.8623849 0.018765 0.714681 -0.699199 -0.130621 0.9913487 -0.012883 -0.013287 0.506079 -0.8623849 -0.130621 0.9913487 -0.012883 -0.169919 0.9154371 -0.364832 -0.169919 0.9154371 -0.364832 -0.130621 0.9913487 -0.012883 -0.2038379 0.6880566 -0.6964396 -0.169919 0.9154371 -0.364832 -0.2038379 0.6880566 -0.6964396 -0.303201 0.856219 -0.41828 -0.303201 0.856219 -0.41828 -0.2038379 0.6880566 -0.6964396 -0.3229521 0.6769361 -0.6614072 -0.303201 0.856219 -0.41828 -0.3229521 0.6769361 -0.6614072 -0.4285071 0.7884122 -0.4413481 -0.4285071 0.7884122 -0.4413481 -0.3229521 0.6769361 -0.6614072 -0.3917859 0.5696369 -0.7225078 -0.4285071 0.7884122 -0.4413481 -0.3917859 0.5696369 -0.7225078 -0.547772 0.713515 -0.436855 -0.547772 0.713515 -0.436855 -0.3917859 0.5696369 -0.7225078 -0.438874 0.462518 -0.770368 -0.547772 0.713515 -0.436855 -0.438874 0.462518 -0.770368 -0.6635678 0.6296458 -0.4040098 -0.6635678 0.6296458 -0.4040098 -0.438874 0.462518 -0.770368 -0.08741697 0.06711098 -0.9939086 -0.6635678 0.6296458 -0.4040098 -0.08741697 0.06711098 -0.9939086 -0.413606 0.28447 -0.864874 -0.413606 0.28447 -0.864874 -0.08741697 0.06711098 -0.9939086 -0.211102 0.114735 -0.9707069 -0.413606 0.28447 -0.864874 -0.211102 0.114735 -0.9707069 -0.8580482 0.4093571 -0.310129 -0.8580482 0.4093571 -0.310129 -0.211102 0.114735 -0.9707069 -0.9414138 0.3333699 -0.05103499 -0.8580482 0.4093571 -0.310129 -0.9414138 0.3333699 -0.05103499 -0.8844152 0.2620101 -0.3862131 -0.8844152 0.2620101 -0.3862131 -0.9414138 0.3333699 -0.05103499 -0.9831249 0.182482 -0.01288 -0.8844152 0.2620101 -0.3862131 -0.9831249 0.182482 -0.01288 -0.8954911 0.11799 -0.4291551 -0.8954911 0.11799 -0.4291551 -0.9831249 0.182482 -0.01288 -0.204198 0.005361 -0.978915 -0.8954911 0.11799 -0.4291551 -0.204198 0.005361 -0.978915 -0.89624 -0.023531 -0.442945 -0.89624 -0.023531 -0.442945 -0.204198 0.005361 -0.978915 -0.9913487 -0.130621 -0.012883 -0.89624 -0.023531 -0.442945 -0.9913487 -0.130621 -0.012883 -0.8881016 -0.1648449 -0.4290708 -0.8881016 -0.1648449 -0.4290708 -0.9913487 -0.130621 -0.012883 -0.3466042 -0.1026821 -0.9323744 -0.8881016 -0.1648449 -0.4290708 -0.3466042 -0.1026821 -0.9323744 -0.8694509 -0.307887 -0.3863429 -0.8694509 -0.307887 -0.3863429 -0.3466042 -0.1026821 -0.9323744 -0.2105771 -0.100462 -0.9724015 -0.8694509 -0.307887 -0.3863429 -0.2105771 -0.100462 -0.9724015 -0.4437779 -0.2411959 -0.8630677 -0.4437779 -0.2411959 -0.8630677 -0.2105771 -0.100462 -0.9724015 -0.8238663 -0.5666392 -0.012816 -0.4437779 -0.2411959 -0.8630677 -0.8238663 -0.5666392 -0.012816 -0.7460222 -0.5727281 -0.3397551 -0.7460222 -0.5727281 -0.3397551 -0.8238663 -0.5666392 -0.012816 -0.5797021 -0.5500671 -0.601142 -0.7460222 -0.5727281 -0.3397551 -0.5797021 -0.5500671 -0.601142 -0.6296458 -0.6635678 -0.4040098 -0.6296458 -0.6635678 -0.4040098 -0.5797021 -0.5500671 -0.601142 -0.5822783 -0.7584624 -0.2927231 -0.6296458 -0.6635678 -0.4040098 -0.5822783 -0.7584624 -0.2927231 -0.509761 -0.7411681 -0.4368221 -0.509761 -0.7411681 -0.4368221 -0.5822783 -0.7584624 -0.2927231 -0.464559 -0.854745 -0.231508 -0.509761 -0.7411681 -0.4368221 -0.464559 -0.854745 -0.231508 -0.3863601 -0.8098443 -0.4414501 -0.3863601 -0.8098443 -0.4414501 -0.464559 -0.854745 -0.231508 -0.3333699 -0.9414138 -0.05103499 -0.3863601 -0.8098443 -0.4414501 -0.3333699 -0.9414138 -0.05103499 -0.2580249 -0.8709648 -0.4181429 -0.2580249 -0.8709648 -0.4181429 -0.3333699 -0.9414138 -0.05103499 -0.182482 -0.9831249 -0.01288 -0.2580249 -0.8709648 -0.4181429 -0.182482 -0.9831249 -0.01288 -0.064905 -0.492597 -0.8678339 -0.064905 -0.492597 -0.8678339 -0.182482 -0.9831249 -0.01288 -0.02603799 -0.9917238 -0.125722 -0.064905 -0.492597 -0.8678339 -0.02603799 -0.9917238 -0.125722 0.02522299 -0.9606578 -0.2765869 0.02522299 -0.9606578 -0.2765869 -0.02603799 -0.9917238 -0.125722 0.06289396 -0.4773317 -0.8764695 0.02522299 -0.9606578 -0.2765869 0.06289396 -0.4773317 -0.8764695 0.169919 -0.9154371 -0.364832 0.169919 -0.9154371 -0.364832 0.06289396 -0.4773317 -0.8764695 0.2840259 -0.9587308 -0.012828 0.169919 -0.9154371 -0.364832 0.2840259 -0.9587308 -0.012828 0.303201 -0.856219 -0.41828 0.303201 -0.856219 -0.41828 0.2840259 -0.9587308 -0.012828 0.244918 -0.5133711 -0.8224751 0.303201 -0.856219 -0.41828 0.244918 -0.5133711 -0.8224751 0.4285071 -0.7884122 -0.4413481 0.4285071 -0.7884122 -0.4413481 0.244918 -0.5133711 -0.8224751 0.361265 -0.525261 -0.770447 0.4285071 -0.7884122 -0.4413481 0.361265 -0.525261 -0.770447 0.547772 -0.713515 -0.436855 0.547772 -0.713515 -0.436855 0.361265 -0.525261 -0.770447 0.4062571 -0.4281441 -0.8072471 0.547772 -0.713515 -0.436855 0.4062571 -0.4281441 -0.8072471 0.6635678 -0.6296458 -0.4040098 0.6635678 -0.6296458 -0.4040098 0.4062571 -0.4281441 -0.8072471 0.08420198 -0.06464198 -0.9943498 0.6635678 -0.6296458 -0.4040098 0.08420198 -0.06464198 -0.9943498 0.413606 -0.28447 -0.864874 0.413606 -0.28447 -0.864874 0.08420198 -0.06464198 -0.9943498 0.8785407 -0.4774928 -0.012918 0.413606 -0.28447 -0.864874 0.8785407 -0.4774928 -0.012918 0.8580482 -0.4093571 -0.310129 0.8580482 -0.4093571 -0.310129 0.8785407 -0.4774928 -0.012918 0.2257781 -0.07995203 -0.9708924 0.8580482 -0.4093571 -0.310129 0.2257781 -0.07995203 -0.9708924 0.8844152 -0.2620101 -0.3862131 0.8844152 -0.2620101 -0.3862131 0.2257781 -0.07995203 -0.9708924 0.9831249 -0.182482 -0.01288 0.8844152 -0.2620101 -0.3862131 0.9831249 -0.182482 -0.01288 0.8954911 -0.11799 -0.4291551 0.8954911 -0.11799 -0.4291551 0.9831249 -0.182482 -0.01288 0.3261271 -0.008563002 -0.9452872 0.8954911 -0.11799 -0.4291551 0.3261271 -0.008563002 -0.9452872 0.89624 0.023531 -0.442945 -0.3863601 -0.8098443 -0.4414501 -0.2618268 -0.7558205 -0.6001517 -0.509761 -0.7411681 -0.4368221 -0.509761 -0.7411681 -0.4368221 -0.2618268 -0.7558205 -0.6001517 -0.6296458 -0.6635678 -0.4040098 0.02522299 -0.9606578 -0.2765869 0.5166241 -0.5965721 -0.6141671 -0.064905 -0.492597 -0.8678339 -0.064905 -0.492597 -0.8678339 0.5166241 -0.5965721 -0.6141671 -0.2618268 -0.7558205 -0.6001517 -0.064905 -0.492597 -0.8678339 -0.2618268 -0.7558205 -0.6001517 -0.2580249 -0.8709648 -0.4181429 -0.2580249 -0.8709648 -0.4181429 -0.2618268 -0.7558205 -0.6001517 -0.3863601 -0.8098443 -0.4414501 0.02522299 -0.9606578 -0.2765869 0.169919 -0.9154371 -0.364832 0.5166241 -0.5965721 -0.6141671 0.5166241 -0.5965721 -0.6141671 0.169919 -0.9154371 -0.364832 0.303201 -0.856219 -0.41828 0.5166241 -0.5965721 -0.6141671 0.303201 -0.856219 -0.41828 0.4285071 -0.7884122 -0.4413481 0.5166241 -0.5965721 -0.6141671 0.413606 -0.28447 -0.864874 0.776705 0.149497 -0.611866 0.776705 0.149497 -0.611866 0.413606 -0.28447 -0.864874 0.8580482 -0.4093571 -0.310129 0.776705 0.149497 -0.611866 0.8580482 -0.4093571 -0.310129 0.8844152 -0.2620101 -0.3862131 0.8844152 -0.2620101 -0.3862131 0.8954911 -0.11799 -0.4291551 0.776705 0.149497 -0.611866 0.776705 0.149497 -0.611866 0.8954911 -0.11799 -0.4291551 0.89624 0.023531 -0.442945 0.776705 0.149497 -0.611866 0.89624 0.023531 -0.442945 0.8881016 0.1648449 -0.4290708 0.4285071 -0.7884122 -0.4413481 0.547772 -0.713515 -0.436855 0.5166241 -0.5965721 -0.6141671 0.5166241 -0.5965721 -0.6141671 0.547772 -0.713515 -0.436855 0.6635678 -0.6296458 -0.4040098 0.5166241 -0.5965721 -0.6141671 0.6635678 -0.6296458 -0.4040098 0.413606 -0.28447 -0.864874 0.6296458 0.6635678 -0.4040098 0.509761 0.7411681 -0.4368221 0.2592081 0.7482602 -0.6106701 0.2592081 0.7482602 -0.6106701 0.509761 0.7411681 -0.4368221 0.3863601 0.8098443 -0.4414501 0.2592081 0.7482602 -0.6106701 0.3863601 0.8098443 -0.4414501 0.2580249 0.8709648 -0.4181429 -0.8844152 0.2620101 -0.3862131 -0.8954911 0.11799 -0.4291551 -0.776705 -0.149497 -0.611866 -0.776705 -0.149497 -0.611866 -0.8954911 0.11799 -0.4291551 -0.89624 -0.023531 -0.442945 -0.776705 -0.149497 -0.611866 -0.89624 -0.023531 -0.442945 -0.8881016 -0.1648449 -0.4290708 -0.8881016 -0.1648449 -0.4290708 -0.8694509 -0.307887 -0.3863429 -0.776705 -0.149497 -0.611866 -0.776705 -0.149497 -0.611866 -0.8694509 -0.307887 -0.3863429 -0.4437779 -0.2411959 -0.8630677 -0.776705 -0.149497 -0.611866 -0.4437779 -0.2411959 -0.8630677 -0.2618268 -0.7558205 -0.6001517 -0.2618268 -0.7558205 -0.6001517 -0.4437779 -0.2411959 -0.8630677 -0.7460222 -0.5727281 -0.3397551 -0.2618268 -0.7558205 -0.6001517 -0.7460222 -0.5727281 -0.3397551 -0.6296458 -0.6635678 -0.4040098 0.8881016 0.1648449 -0.4290708 0.8694509 0.307887 -0.3863429 0.776705 0.149497 -0.611866 0.776705 0.149497 -0.611866 0.8694509 0.307887 -0.3863429 0.4437779 0.2411959 -0.8630677 0.776705 0.149497 -0.611866 0.4437779 0.2411959 -0.8630677 0.2592081 0.7482602 -0.6106701 0.2592081 0.7482602 -0.6106701 0.4437779 0.2411959 -0.8630677 0.7460222 0.5727281 -0.3397551 0.2592081 0.7482602 -0.6106701 0.7460222 0.5727281 -0.3397551 0.6296458 0.6635678 -0.4040098 -0.169919 0.9154371 -0.364832 -0.524654 0.605845 -0.598072 -0.013287 0.506079 -0.8623849 -0.013287 0.506079 -0.8623849 -0.524654 0.605845 -0.598072 0.2592081 0.7482602 -0.6106701 -0.013287 0.506079 -0.8623849 0.2592081 0.7482602 -0.6106701 0.121624 0.9230651 -0.364909 0.121624 0.9230651 -0.364909 0.2592081 0.7482602 -0.6106701 0.2580249 0.8709648 -0.4181429 -0.169919 0.9154371 -0.364832 -0.303201 0.856219 -0.41828 -0.524654 0.605845 -0.598072 -0.524654 0.605845 -0.598072 -0.303201 0.856219 -0.41828 -0.4285071 0.7884122 -0.4413481 -0.524654 0.605845 -0.598072 -0.4285071 0.7884122 -0.4413481 -0.547772 0.713515 -0.436855 -0.547772 0.713515 -0.436855 -0.6635678 0.6296458 -0.4040098 -0.524654 0.605845 -0.598072 -0.524654 0.605845 -0.598072 -0.6635678 0.6296458 -0.4040098 -0.413606 0.28447 -0.864874 -0.524654 0.605845 -0.598072 -0.413606 0.28447 -0.864874 -0.776705 -0.149497 -0.611866 -0.776705 -0.149497 -0.611866 -0.413606 0.28447 -0.864874 -0.8580482 0.4093571 -0.310129 -0.776705 -0.149497 -0.611866 -0.8580482 0.4093571 -0.310129 -0.8844152 0.2620101 -0.3862131 0.2592081 0.7482602 -0.6106701 0.5166241 0.5965721 0.6141671 0.776705 0.149497 -0.611866 0.776705 0.149497 -0.611866 0.5166241 0.5965721 0.6141671 0.776705 -0.149497 0.611866 -0.524654 0.605845 -0.598072 -0.2618268 0.7558205 0.6001517 0.2592081 0.7482602 -0.6106701 0.2592081 0.7482602 -0.6106701 -0.2618268 0.7558205 0.6001517 0.5166241 0.5965721 0.6141671 -0.776705 -0.149497 -0.611866 -0.776705 0.149497 0.611866 -0.524654 0.605845 -0.598072 -0.524654 0.605845 -0.598072 -0.776705 0.149497 0.611866 -0.2618268 0.7558205 0.6001517 -0.2618268 -0.7558205 -0.6001517 -0.524654 -0.605845 0.598072 -0.776705 -0.149497 -0.611866 -0.776705 -0.149497 -0.611866 -0.524654 -0.605845 0.598072 -0.776705 0.149497 0.611866 0.5166241 -0.5965721 -0.6141671 0.2592081 -0.7482602 0.6106701 -0.2618268 -0.7558205 -0.6001517 -0.2618268 -0.7558205 -0.6001517 0.2592081 -0.7482602 0.6106701 -0.524654 -0.605845 0.598072 0.776705 0.149497 -0.611866 0.776705 -0.149497 0.611866 0.5166241 -0.5965721 -0.6141671 0.5166241 -0.5965721 -0.6141671 0.776705 -0.149497 0.611866 0.2592081 -0.7482602 0.6106701 0.6614057 -0.122767 0.7399127 0.676659 -0.239616 0.696216 0.776705 -0.149497 0.611866 0.776705 -0.149497 0.611866 0.676659 -0.239616 0.696216 0.215292 -0.117013 0.969514 0.776705 -0.149497 0.611866 0.215292 -0.117013 0.969514 0.2592081 -0.7482602 0.6106701 0.2592081 -0.7482602 0.6106701 0.215292 -0.117013 0.969514 0.6084211 -0.4670901 0.6416001 0.2592081 -0.7482602 0.6106701 0.6084211 -0.4670901 0.6416001 0.4812329 -0.5071589 0.7149858 0.4812329 -0.5071589 0.7149858 0.3765952 -0.5475512 0.7472374 0.2592081 -0.7482602 0.6106701 0.2592081 -0.7482602 0.6106701 0.3765952 -0.5475512 0.7472374 0.284059 -0.5954139 0.7515269 0.2592081 -0.7482602 0.6106701 0.284059 -0.5954139 0.7515269 0.194351 -0.6560311 0.7292811 0.194351 -0.6560311 0.7292811 0.09673502 -0.7341702 0.6720392 0.2592081 -0.7482602 0.6106701 0.2592081 -0.7482602 0.6106701 0.09673502 -0.7341702 0.6720392 -0.006450003 -0.2456651 0.9693334 0.2592081 -0.7482602 0.6106701 -0.006450003 -0.2456651 0.9693334 -0.524654 -0.605845 0.598072 -0.524654 -0.605845 0.598072 -0.006450003 -0.2456651 0.9693334 -0.135157 -0.7281591 0.67195 -0.135157 -0.7281591 0.67195 -0.2283461 -0.6448333 0.7294163 -0.524654 -0.605845 0.598072 -0.524654 -0.605845 0.598072 -0.2283461 -0.6448333 0.7294163 -0.31508 -0.5797169 0.7514339 -0.524654 -0.605845 0.598072 -0.31508 -0.5797169 0.7514339 -0.4046629 -0.527104 0.747268 0.6883968 0.203939 0.6960738 0.6668499 0.087865 0.7399939 0.776705 -0.149497 0.611866 0.776705 -0.149497 0.611866 0.6668499 0.087865 0.7399939 0.6579081 -0.017274 0.7529001 0.776705 -0.149497 0.611866 0.6579081 -0.017274 0.7529001 0.6614057 -0.122767 0.7399127 0.5166241 0.5965721 0.6141671 0.2003341 0.137786 0.9699904 0.776705 -0.149497 0.611866 0.776705 -0.149497 0.611866 0.2003341 0.137786 0.9699904 0.7201862 0.3435851 0.6027281 0.776705 -0.149497 0.611866 0.7201862 0.3435851 0.6027281 0.6883968 0.203939 0.6960738 -0.4046629 -0.527104 0.747268 -0.5071589 -0.4812329 0.7149858 -0.524654 -0.605845 0.598072 -0.524654 -0.605845 0.598072 -0.5071589 -0.4812329 0.7149858 -0.2003341 -0.137786 0.9699904 -0.524654 -0.605845 0.598072 -0.2003341 -0.137786 0.9699904 -0.776705 0.149497 0.611866 -0.776705 0.149497 0.611866 -0.2003341 -0.137786 0.9699904 -0.7201862 -0.3435851 0.6027281 -0.776705 0.149497 0.611866 -0.7201862 -0.3435851 0.6027281 -0.6883968 -0.203939 0.6960738 -0.6883968 -0.203939 0.6960738 -0.6668499 -0.087865 0.7399939 -0.776705 0.149497 0.611866 -0.776705 0.149497 0.611866 -0.6668499 -0.087865 0.7399939 -0.6579081 0.017274 0.7529001 -0.776705 0.149497 0.611866 -0.6579081 0.017274 0.7529001 -0.6614057 0.122767 0.7399127 -0.6614057 0.122767 0.7399127 -0.676659 0.239616 0.696216 -0.776705 0.149497 0.611866 -0.776705 0.149497 0.611866 -0.676659 0.239616 0.696216 -0.215292 0.117013 0.969514 -0.776705 0.149497 0.611866 -0.215292 0.117013 0.969514 -0.2618268 0.7558205 0.6001517 -0.2618268 0.7558205 0.6001517 -0.215292 0.117013 0.969514 -0.6084211 0.4670901 0.6416001 -0.6084211 0.4670901 0.6416001 -0.4812329 0.5071589 0.7149858 -0.2618268 0.7558205 0.6001517 -0.2618268 0.7558205 0.6001517 -0.4812329 0.5071589 0.7149858 -0.3765952 0.5475512 0.7472374 -0.2618268 0.7558205 0.6001517 -0.3765952 0.5475512 0.7472374 -0.284059 0.5954139 0.7515269 0.021841 0.8318518 0.5545679 0.5166241 0.5965721 0.6141671 -0.031355 0.237971 0.9707661 -0.031355 0.237971 0.9707661 0.5166241 0.5965721 0.6141671 -0.2618268 0.7558205 0.6001517 -0.031355 0.237971 0.9707661 -0.2618268 0.7558205 0.6001517 -0.194351 0.6560311 0.7292811 -0.194351 0.6560311 0.7292811 -0.2618268 0.7558205 0.6001517 -0.284059 0.5954139 0.7515269 0.021841 0.8318518 0.5545679 0.135157 0.7281591 0.67195 0.5166241 0.5965721 0.6141671 0.5166241 0.5965721 0.6141671 0.135157 0.7281591 0.67195 0.2283461 0.6448333 0.7294163 0.5166241 0.5965721 0.6141671 0.2283461 0.6448333 0.7294163 0.31508 0.5797169 0.7514339 0.31508 0.5797169 0.7514339 0.4046629 0.527104 0.747268 0.5166241 0.5965721 0.6141671 0.5166241 0.5965721 0.6141671 0.4046629 0.527104 0.747268 0.5071589 0.4812329 0.7149858 0.5166241 0.5965721 0.6141671 0.5071589 0.4812329 0.7149858 0.2003341 0.137786 0.9699904 0.6579081 0.017274 -0.7529001 0.6579081 -0.017274 0.7529001 0.6668499 0.087865 0.7399939 0.6579081 0.017274 -0.7529001 0.6668499 0.087865 0.7399939 0.6614057 0.122767 -0.7399127 0.6614057 0.122767 -0.7399127 0.6668499 0.087865 0.7399939 0.6883968 0.203939 0.6960738 0.6614057 0.122767 -0.7399127 0.6883968 0.203939 0.6960738 0.676659 0.239616 -0.696216 0.676659 0.239616 -0.696216 0.6883968 0.203939 0.6960738 0.7201862 0.3435851 0.6027281 0.676659 0.239616 -0.696216 0.7201862 0.3435851 0.6027281 0.215292 0.117013 -0.969514 0.215292 0.117013 -0.969514 0.7201862 0.3435851 0.6027281 0.2003341 0.137786 0.9699904 0.215292 0.117013 -0.969514 0.2003341 0.137786 0.9699904 0.6084211 0.4670901 -0.6416001 0.6084211 0.4670901 -0.6416001 0.2003341 0.137786 0.9699904 0.5071589 0.4812329 0.7149858 0.6084211 0.4670901 -0.6416001 0.5071589 0.4812329 0.7149858 0.4812329 0.5071589 -0.7149858 0.4812329 0.5071589 -0.7149858 0.5071589 0.4812329 0.7149858 0.4046629 0.527104 0.747268 0.4812329 0.5071589 -0.7149858 0.4046629 0.527104 0.747268 0.3765952 0.5475512 -0.7472374 0.3765952 0.5475512 -0.7472374 0.4046629 0.527104 0.747268 0.31508 0.5797169 0.7514339 0.3765952 0.5475512 -0.7472374 0.31508 0.5797169 0.7514339 0.284059 0.5954139 -0.7515269 0.284059 0.5954139 -0.7515269 0.31508 0.5797169 0.7514339 0.2283461 0.6448333 0.7294163 0.284059 0.5954139 -0.7515269 0.2283461 0.6448333 0.7294163 0.194351 0.6560311 -0.7292811 0.194351 0.6560311 -0.7292811 0.2283461 0.6448333 0.7294163 0.135157 0.7281591 0.67195 0.194351 0.6560311 -0.7292811 0.135157 0.7281591 0.67195 0.09673502 0.7341702 -0.6720392 0.09673502 0.7341702 -0.6720392 0.135157 0.7281591 0.67195 0.021841 0.8318518 0.5545679 0.09673502 0.7341702 -0.6720392 0.021841 0.8318518 0.5545679 -0.006450003 0.2456651 -0.9693334 -0.006450003 0.2456651 -0.9693334 0.021841 0.8318518 0.5545679 -0.031355 0.237971 0.9707661 -0.006450003 0.2456651 -0.9693334 -0.031355 0.237971 0.9707661 -0.135157 0.7281591 -0.67195 -0.135157 0.7281591 -0.67195 -0.031355 0.237971 0.9707661 -0.194351 0.6560311 0.7292811 -0.135157 0.7281591 -0.67195 -0.194351 0.6560311 0.7292811 -0.2283461 0.6448333 -0.7294163 -0.2283461 0.6448333 -0.7294163 -0.194351 0.6560311 0.7292811 -0.284059 0.5954139 0.7515269 -0.2283461 0.6448333 -0.7294163 -0.284059 0.5954139 0.7515269 -0.31508 0.5797169 -0.7514339 -0.31508 0.5797169 -0.7514339 -0.284059 0.5954139 0.7515269 -0.3765952 0.5475512 0.7472374 -0.31508 0.5797169 -0.7514339 -0.3765952 0.5475512 0.7472374 -0.4046629 0.527104 -0.747268 -0.4046629 0.527104 -0.747268 -0.3765952 0.5475512 0.7472374 -0.4812329 0.5071589 0.7149858 -0.4046629 0.527104 -0.747268 -0.4812329 0.5071589 0.7149858 -0.5071589 0.4812329 -0.7149858 -0.5071589 0.4812329 -0.7149858 -0.4812329 0.5071589 0.7149858 -0.6084211 0.4670901 0.6416001 -0.5071589 0.4812329 -0.7149858 -0.6084211 0.4670901 0.6416001 -0.2003341 0.137786 -0.9699904 -0.2003341 0.137786 -0.9699904 -0.6084211 0.4670901 0.6416001 -0.215292 0.117013 0.969514 -0.2003341 0.137786 -0.9699904 -0.215292 0.117013 0.969514 -0.7201862 0.3435851 -0.6027281 -0.7201862 0.3435851 -0.6027281 -0.215292 0.117013 0.969514 -0.676659 0.239616 0.696216 -0.7201862 0.3435851 -0.6027281 -0.676659 0.239616 0.696216 -0.6883968 0.203939 -0.6960738 -0.6883968 0.203939 -0.6960738 -0.676659 0.239616 0.696216 -0.6614057 0.122767 0.7399127 -0.6883968 0.203939 -0.6960738 -0.6614057 0.122767 0.7399127 -0.6668499 0.087865 -0.7399939 -0.6668499 0.087865 -0.7399939 -0.6614057 0.122767 0.7399127 -0.6579081 0.017274 0.7529001 -0.6668499 0.087865 -0.7399939 -0.6579081 0.017274 0.7529001 -0.6579081 -0.017274 -0.7529001 -0.6579081 -0.017274 -0.7529001 -0.6579081 0.017274 0.7529001 -0.6668499 -0.087865 0.7399939 -0.6579081 -0.017274 -0.7529001 -0.6668499 -0.087865 0.7399939 -0.6614057 -0.122767 -0.7399127 -0.6614057 -0.122767 -0.7399127 -0.6668499 -0.087865 0.7399939 -0.6883968 -0.203939 0.6960738 -0.6614057 -0.122767 -0.7399127 -0.6883968 -0.203939 0.6960738 -0.676659 -0.239616 -0.696216 -0.676659 -0.239616 -0.696216 -0.6883968 -0.203939 0.6960738 -0.7201862 -0.3435851 0.6027281 -0.676659 -0.239616 -0.696216 -0.7201862 -0.3435851 0.6027281 -0.215292 -0.117013 -0.969514 -0.215292 -0.117013 -0.969514 -0.7201862 -0.3435851 0.6027281 -0.2003341 -0.137786 0.9699904 -0.215292 -0.117013 -0.969514 -0.2003341 -0.137786 0.9699904 -0.6084211 -0.4670901 -0.6416001 -0.6084211 -0.4670901 -0.6416001 -0.2003341 -0.137786 0.9699904 -0.5071589 -0.4812329 0.7149858 -0.6084211 -0.4670901 -0.6416001 -0.5071589 -0.4812329 0.7149858 -0.4812329 -0.5071589 -0.7149858 -0.4812329 -0.5071589 -0.7149858 -0.5071589 -0.4812329 0.7149858 -0.4046629 -0.527104 0.747268 -0.4812329 -0.5071589 -0.7149858 -0.4046629 -0.527104 0.747268 -0.3765952 -0.5475512 -0.7472374 -0.3765952 -0.5475512 -0.7472374 -0.4046629 -0.527104 0.747268 -0.31508 -0.5797169 0.7514339 -0.3765952 -0.5475512 -0.7472374 -0.31508 -0.5797169 0.7514339 -0.284059 -0.5954139 -0.7515269 -0.284059 -0.5954139 -0.7515269 -0.31508 -0.5797169 0.7514339 -0.2283461 -0.6448333 0.7294163 -0.284059 -0.5954139 -0.7515269 -0.2283461 -0.6448333 0.7294163 -0.194351 -0.6560311 -0.7292811 -0.194351 -0.6560311 -0.7292811 -0.2283461 -0.6448333 0.7294163 -0.135157 -0.7281591 0.67195 -0.194351 -0.6560311 -0.7292811 -0.135157 -0.7281591 0.67195 -0.031355 -0.237971 -0.9707661 -0.031355 -0.237971 -0.9707661 -0.135157 -0.7281591 0.67195 -0.006450003 -0.2456651 0.9693334 -0.031355 -0.237971 -0.9707661 -0.006450003 -0.2456651 0.9693334 0.021841 -0.8318518 -0.5545679 0.021841 -0.8318518 -0.5545679 -0.006450003 -0.2456651 0.9693334 0.09673502 -0.7341702 0.6720392 0.021841 -0.8318518 -0.5545679 0.09673502 -0.7341702 0.6720392 0.135157 -0.7281591 -0.67195 0.135157 -0.7281591 -0.67195 0.09673502 -0.7341702 0.6720392 0.194351 -0.6560311 0.7292811 0.135157 -0.7281591 -0.67195 0.194351 -0.6560311 0.7292811 0.2283461 -0.6448333 -0.7294163 0.2283461 -0.6448333 -0.7294163 0.194351 -0.6560311 0.7292811 0.284059 -0.5954139 0.7515269 0.2283461 -0.6448333 -0.7294163 0.284059 -0.5954139 0.7515269 0.31508 -0.5797169 -0.7514339 0.31508 -0.5797169 -0.7514339 0.284059 -0.5954139 0.7515269 0.3765952 -0.5475512 0.7472374 0.31508 -0.5797169 -0.7514339 0.3765952 -0.5475512 0.7472374 0.4046629 -0.527104 -0.747268 0.4046629 -0.527104 -0.747268 0.3765952 -0.5475512 0.7472374 0.4812329 -0.5071589 0.7149858 0.4046629 -0.527104 -0.747268 0.4812329 -0.5071589 0.7149858 0.5071589 -0.4812329 -0.7149858 0.5071589 -0.4812329 -0.7149858 0.4812329 -0.5071589 0.7149858 0.6084211 -0.4670901 0.6416001 0.5071589 -0.4812329 -0.7149858 0.6084211 -0.4670901 0.6416001 0.2003341 -0.137786 -0.9699904 0.2003341 -0.137786 -0.9699904 0.6084211 -0.4670901 0.6416001 0.215292 -0.117013 0.969514 0.2003341 -0.137786 -0.9699904 0.215292 -0.117013 0.969514 0.7201862 -0.3435851 -0.6027281 0.7201862 -0.3435851 -0.6027281 0.215292 -0.117013 0.969514 0.676659 -0.239616 0.696216 0.7201862 -0.3435851 -0.6027281 0.676659 -0.239616 0.696216 0.6883968 -0.203939 -0.6960738 0.6883968 -0.203939 -0.6960738 0.676659 -0.239616 0.696216 0.6614057 -0.122767 0.7399127 0.6883968 -0.203939 -0.6960738 0.6614057 -0.122767 0.7399127 0.6668499 -0.087865 -0.7399939 0.6668499 -0.087865 -0.7399939 0.6614057 -0.122767 0.7399127 0.6579081 -0.017274 0.7529001 0.6668499 -0.087865 -0.7399939 0.6579081 -0.017274 0.7529001 0.6579081 0.017274 -0.7529001 -0.284059 -0.5954139 -0.7515269 -0.324139 -0.9356981 -0.139295 -0.3765952 -0.5475512 -0.7472374 -0.3765952 -0.5475512 -0.7472374 -0.324139 -0.9356981 -0.139295 -0.4812329 -0.5071589 -0.7149858 0.021841 -0.8318518 -0.5545679 0.6477788 -0.7480228 -0.144376 -0.031355 -0.237971 -0.9707661 -0.031355 -0.237971 -0.9707661 0.6477788 -0.7480228 -0.144376 -0.324139 -0.9356981 -0.139295 -0.031355 -0.237971 -0.9707661 -0.324139 -0.9356981 -0.139295 -0.194351 -0.6560311 -0.7292811 -0.194351 -0.6560311 -0.7292811 -0.324139 -0.9356981 -0.139295 -0.284059 -0.5954139 -0.7515269 0.021841 -0.8318518 -0.5545679 0.135157 -0.7281591 -0.67195 0.6477788 -0.7480228 -0.144376 0.6477788 -0.7480228 -0.144376 0.135157 -0.7281591 -0.67195 0.2283461 -0.6448333 -0.7294163 0.6477788 -0.7480228 -0.144376 0.2283461 -0.6448333 -0.7294163 0.31508 -0.5797169 -0.7514339 0.6477788 -0.7480228 -0.144376 0.2003341 -0.137786 -0.9699904 0.9718086 0.1870499 -0.1435289 0.9718086 0.1870499 -0.1435289 0.2003341 -0.137786 -0.9699904 0.7201862 -0.3435851 -0.6027281 0.9718086 0.1870499 -0.1435289 0.7201862 -0.3435851 -0.6027281 0.6883968 -0.203939 -0.6960738 0.6883968 -0.203939 -0.6960738 0.6668499 -0.087865 -0.7399939 0.9718086 0.1870499 -0.1435289 0.9718086 0.1870499 -0.1435289 0.6668499 -0.087865 -0.7399939 0.6579081 0.017274 -0.7529001 0.9718086 0.1870499 -0.1435289 0.6579081 0.017274 -0.7529001 0.6614057 0.122767 -0.7399127 0.31508 -0.5797169 -0.7514339 0.4046629 -0.527104 -0.747268 0.6477788 -0.7480228 -0.144376 0.6477788 -0.7480228 -0.144376 0.4046629 -0.527104 -0.747268 0.5071589 -0.4812329 -0.7149858 0.6477788 -0.7480228 -0.144376 0.5071589 -0.4812329 -0.7149858 0.2003341 -0.137786 -0.9699904 0.4812329 0.5071589 -0.7149858 0.3765952 0.5475512 -0.7472374 0.3239619 0.9351866 -0.14309 0.3239619 0.9351866 -0.14309 0.3765952 0.5475512 -0.7472374 0.284059 0.5954139 -0.7515269 0.3239619 0.9351866 -0.14309 0.284059 0.5954139 -0.7515269 0.194351 0.6560311 -0.7292811 -0.6883968 0.203939 -0.6960738 -0.6668499 0.087865 -0.7399939 -0.9718086 -0.1870499 -0.1435289 -0.9718086 -0.1870499 -0.1435289 -0.6668499 0.087865 -0.7399939 -0.6579081 -0.017274 -0.7529001 -0.9718086 -0.1870499 -0.1435289 -0.6579081 -0.017274 -0.7529001 -0.6614057 -0.122767 -0.7399127 -0.6614057 -0.122767 -0.7399127 -0.676659 -0.239616 -0.696216 -0.9718086 -0.1870499 -0.1435289 -0.9718086 -0.1870499 -0.1435289 -0.676659 -0.239616 -0.696216 -0.215292 -0.117013 -0.969514 -0.9718086 -0.1870499 -0.1435289 -0.215292 -0.117013 -0.969514 -0.324139 -0.9356981 -0.139295 -0.324139 -0.9356981 -0.139295 -0.215292 -0.117013 -0.969514 -0.6084211 -0.4670901 -0.6416001 -0.324139 -0.9356981 -0.139295 -0.6084211 -0.4670901 -0.6416001 -0.4812329 -0.5071589 -0.7149858 0.6614057 0.122767 -0.7399127 0.676659 0.239616 -0.696216 0.9718086 0.1870499 -0.1435289 0.9718086 0.1870499 -0.1435289 0.676659 0.239616 -0.696216 0.215292 0.117013 -0.969514 0.9718086 0.1870499 -0.1435289 0.215292 0.117013 -0.969514 0.3239619 0.9351866 -0.14309 0.3239619 0.9351866 -0.14309 0.215292 0.117013 -0.969514 0.6084211 0.4670901 -0.6416001 0.3239619 0.9351866 -0.14309 0.6084211 0.4670901 -0.6416001 0.4812329 0.5071589 -0.7149858 -0.135157 0.7281591 -0.67195 -0.6483228 0.7486518 -0.138557 -0.006450003 0.2456651 -0.9693334 -0.006450003 0.2456651 -0.9693334 -0.6483228 0.7486518 -0.138557 0.3239619 0.9351866 -0.14309 -0.006450003 0.2456651 -0.9693334 0.3239619 0.9351866 -0.14309 0.09673502 0.7341702 -0.6720392 0.09673502 0.7341702 -0.6720392 0.3239619 0.9351866 -0.14309 0.194351 0.6560311 -0.7292811 -0.135157 0.7281591 -0.67195 -0.2283461 0.6448333 -0.7294163 -0.6483228 0.7486518 -0.138557 -0.6483228 0.7486518 -0.138557 -0.2283461 0.6448333 -0.7294163 -0.31508 0.5797169 -0.7514339 -0.6483228 0.7486518 -0.138557 -0.31508 0.5797169 -0.7514339 -0.4046629 0.527104 -0.747268 -0.4046629 0.527104 -0.747268 -0.5071589 0.4812329 -0.7149858 -0.6483228 0.7486518 -0.138557 -0.6483228 0.7486518 -0.138557 -0.5071589 0.4812329 -0.7149858 -0.2003341 0.137786 -0.9699904 -0.6483228 0.7486518 -0.138557 -0.2003341 0.137786 -0.9699904 -0.9718086 -0.1870499 -0.1435289 -0.9718086 -0.1870499 -0.1435289 -0.2003341 0.137786 -0.9699904 -0.7201862 0.3435851 -0.6027281 -0.9718086 -0.1870499 -0.1435289 -0.7201862 0.3435851 -0.6027281 -0.6883968 0.203939 -0.6960738 0.3239619 0.9351866 -0.14309 0.4447059 0.5135239 0.7338459 0.9718086 0.1870499 -0.1435289 0.9718086 0.1870499 -0.1435289 0.4447059 0.5135239 0.7338459 0.8240204 -0.1586041 0.5439072 -0.6483228 0.7486518 -0.138557 -0.319948 0.9236011 0.211174 0.3239619 0.9351866 -0.14309 0.3239619 0.9351866 -0.14309 -0.319948 0.9236011 0.211174 0.4447059 0.5135239 0.7338459 -0.9718086 -0.1870499 -0.1435289 -0.8240204 0.1586041 0.5439072 -0.6483228 0.7486518 -0.138557 -0.6483228 0.7486518 -0.138557 -0.8240204 0.1586041 0.5439072 -0.319948 0.9236011 0.211174 -0.324139 -0.9356981 -0.139295 -0.4447059 -0.5135239 0.7338459 -0.9718086 -0.1870499 -0.1435289 -0.9718086 -0.1870499 -0.1435289 -0.4447059 -0.5135239 0.7338459 -0.8240204 0.1586041 0.5439072 0.6477788 -0.7480228 -0.144376 0.319948 -0.9236011 0.211174 -0.324139 -0.9356981 -0.139295 -0.324139 -0.9356981 -0.139295 0.319948 -0.9236011 0.211174 -0.4447059 -0.5135239 0.7338459 0.9718086 0.1870499 -0.1435289 0.8240204 -0.1586041 0.5439072 0.6477788 -0.7480228 -0.144376 0.6477788 -0.7480228 -0.144376 0.8240204 -0.1586041 0.5439072 0.319948 -0.9236011 0.211174 0.319948 -0.9236011 0.211174 0.8240204 -0.1586041 0.5439072 -0.4447059 -0.5135239 0.7338459 -0.4447059 -0.5135239 0.7338459 0.8240204 -0.1586041 0.5439072 0.4447059 0.5135239 0.7338459 -0.4447059 -0.5135239 0.7338459 0.4447059 0.5135239 0.7338459 -0.8240204 0.1586041 0.5439072 -0.8240204 0.1586041 0.5439072 0.4447059 0.5135239 0.7338459 -0.319948 0.9236011 0.211174 0.2257781 -0.07995203 -0.9708924 0.8785407 -0.4774928 -0.012918 0.08420198 -0.06464198 -0.9943498 0.5614769 0.7313668 -0.3870999 0.7253452 0.6882652 -0.012861 0.216288 0.148759 -0.9649302 -0.2038379 0.6880566 -0.6964396 -0.130621 0.9913487 -0.012883 0.018765 0.714681 -0.699199 -0.08741697 0.06711098 -0.9939086 0.216288 0.148759 -0.9649302 0.4962399 0.2367459 -0.8352828 -0.08741697 0.06711098 -0.9939086 -0.438874 0.462518 -0.770368 0.216288 0.148759 -0.9649302 0.216288 0.148759 -0.9649302 -0.438874 0.462518 -0.770368 -0.3917859 0.5696369 -0.7225078 0.216288 0.148759 -0.9649302 -0.3917859 0.5696369 -0.7225078 -0.3229521 0.6769361 -0.6614072 0.018765 0.714681 -0.699199 0.182482 0.9831249 -0.01288 0.331151 0.9351461 -0.12586 -0.9913487 -0.130621 -0.012883 -0.204198 0.005361 -0.978915 -0.3466042 -0.1026821 -0.9323744 -0.3466042 -0.1026821 -0.9323744 -0.204198 0.005361 -0.978915 0.08420198 -0.06464198 -0.9943498 -0.3466042 -0.1026821 -0.9323744 0.08420198 -0.06464198 -0.9943498 -0.2105771 -0.100462 -0.9724015 -0.2105771 -0.100462 -0.9724015 0.08420198 -0.06464198 -0.9943498 0.4062571 -0.4281441 -0.8072471 -0.3229521 0.6769361 -0.6614072 -0.2038379 0.6880566 -0.6964396 0.216288 0.148759 -0.9649302 0.216288 0.148759 -0.9649302 -0.2038379 0.6880566 -0.6964396 0.018765 0.714681 -0.699199 0.216288 0.148759 -0.9649302 0.018765 0.714681 -0.699199 0.5614769 0.7313668 -0.3870999 0.5614769 0.7313668 -0.3870999 0.018765 0.714681 -0.699199 0.331151 0.9351461 -0.12586 0.5614769 0.7313668 -0.3870999 0.331151 0.9351461 -0.12586 0.4774928 0.8785407 -0.012918 0.4962399 0.2367459 -0.8352828 0.4950539 0.146661 -0.8563949 -0.08741697 0.06711098 -0.9939086 -0.08741697 0.06711098 -0.9939086 0.4950539 0.146661 -0.8563949 0.4848201 0.06388 -0.8722781 -0.08741697 0.06711098 -0.9939086 0.4848201 0.06388 -0.8722781 0.3261271 -0.008563002 -0.9452872 -0.9831249 0.182482 -0.01288 -0.9414138 0.3333699 -0.05103499 -0.204198 0.005361 -0.978915 -0.204198 0.005361 -0.978915 -0.9414138 0.3333699 -0.05103499 -0.211102 0.114735 -0.9707069 -0.204198 0.005361 -0.978915 -0.211102 0.114735 -0.9707069 0.08420198 -0.06464198 -0.9943498 0.08420198 -0.06464198 -0.9943498 -0.211102 0.114735 -0.9707069 -0.08741697 0.06711098 -0.9939086 0.08420198 -0.06464198 -0.9943498 -0.08741697 0.06711098 -0.9939086 0.2257781 -0.07995203 -0.9708924 0.2257781 -0.07995203 -0.9708924 -0.08741697 0.06711098 -0.9939086 0.3261271 -0.008563002 -0.9452872 0.2257781 -0.07995203 -0.9708924 0.3261271 -0.008563002 -0.9452872 0.9831249 -0.182482 -0.01288 -0.182482 -0.9831249 -0.01288 -0.3333699 -0.9414138 -0.05103499 -0.02603799 -0.9917238 -0.125722 -0.02603799 -0.9917238 -0.125722 -0.3333699 -0.9414138 -0.05103499 -0.464559 -0.854745 -0.231508 -0.02603799 -0.9917238 -0.125722 -0.464559 -0.854745 -0.231508 0.06289396 -0.4773317 -0.8764695 0.2840259 -0.9587308 -0.012828 0.06289396 -0.4773317 -0.8764695 0.244918 -0.5133711 -0.8224751 0.244918 -0.5133711 -0.8224751 0.06289396 -0.4773317 -0.8764695 -0.2105771 -0.100462 -0.9724015 0.244918 -0.5133711 -0.8224751 -0.2105771 -0.100462 -0.9724015 0.361265 -0.525261 -0.770447 0.361265 -0.525261 -0.770447 -0.2105771 -0.100462 -0.9724015 0.4062571 -0.4281441 -0.8072471 -0.8238663 -0.5666392 -0.012816 -0.2105771 -0.100462 -0.9724015 -0.5797021 -0.5500671 -0.601142 -0.5797021 -0.5500671 -0.601142 -0.2105771 -0.100462 -0.9724015 0.06289396 -0.4773317 -0.8764695 -0.5797021 -0.5500671 -0.601142 0.06289396 -0.4773317 -0.8764695 -0.5822783 -0.7584624 -0.2927231 -0.5822783 -0.7584624 -0.2927231 0.06289396 -0.4773317 -0.8764695 -0.464559 -0.854745 -0.231508</float_array>
          <technique_common>
            <accessor source="#MeshShape-normals-array" count="1092" stride="3">
              <param name="X" type="float"/>
              <param name="Y" type="float"/>
              <param name="Z" type="float"/>
            </accessor>
          </technique_common>
        </source>
        <vertices id="MeshShape-vertices" name="MeshShape-vertices">
          <input semantic="POSITION" source="#MeshShape-positions"/>
        </vertices>
        <triangles material="initialShadingGroup" count="364">
          <input semantic="VERTEX" source="#MeshShape-vertices" offset="0"/>
          <input semantic="NORMAL" source="#MeshShape-normals" offset="1"/>
          <p>177 0 176 1 172 2 177 3 172 4 173 5 173 6 172 7 164 8 173 9 164 10 165 11 165 12 164 13 156 14 165 15 156 16 157 17 157 18 156 19 148 20 157 21 148 22 149 23 149 24 148 25 132 26 149 27 132 28 133 29 133 30 132 31 124 32 133 33 124 34 125 35 125 36 124 37 116 38 125 39 116 40 117 41 117 42 116 43 108 44 117 45 108 46 109 47 109 48 108 49 100 50 109 51 100 52 101 53 101 54 100 55 92 56 101 57 92 58 93 59 93 60 92 61 84 62 93 63 84 64 85 65 85 66 84 67 76 68 85 69 76 70 77 71 77 72 76 73 68 74 77 75 68 76 69 77 69 78 68 79 60 80 69 81 60 82 61 83 61 84 60 85 52 86 61 87 52 88 53 89 53 90 52 91 36 92 53 93 36 94 37 95 37 96 36 97 28 98 37 99 28 100 29 101 29 102 28 103 20 104 29 105 20 106 21 107 21 108 20 109 12 110 21 111 12 112 13 113 13 114 12 115 4 116 13 117 4 118 5 119 5 120 4 121 8 122 5 123 8 124 9 125 9 126 8 127 16 128 9 129 16 130 17 131 17 132 16 133 24 134 17 135 24 136 25 137 25 138 24 139 32 140 25 141 32 142 33 143 33 144 32 145 48 146 33 147 48 148 49 149 49 150 48 151 56 152 49 153 56 154 57 155 57 156 56 157 64 158 57 159 64 160 65 161 65 162 64 163 72 164 65 165 72 166 73 167 73 168 72 169 80 170 73 171 80 172 81 173 81 174 80 175 88 176 81 177 88 178 89 179 89 180 88 181 96 182 89 183 96 184 97 185 97 186 96 187 104 188 97 189 104 190 105 191 105 192 104 193 112 194 105 195 112 196 113 197 113 198 112 199 120 200 113 201 120 202 121 203 121 204 120 205 128 206 121 207 128 208 129 209 129 210 128 211 144 212 129 213 144 214 145 215 145 216 144 217 152 218 145 219 152 220 153 221 153 222 152 223 160 224 153 225 160 226 161 227 161 228 160 229 168 230 161 231 168 232 169 233 169 234 168 235 176 236 169 237 176 238 177 239 65 240 40 241 57 242 57 243 40 244 49 245 89 246 136 247 81 248 81 249 136 250 40 251 81 252 40 253 73 254 73 255 40 256 65 257 89 258 97 259 136 260 136 261 97 262 105 263 136 264 105 265 113 266 136 267 145 268 180 269 180 270 145 271 153 272 180 273 153 274 161 275 161 276 169 277 180 278 180 279 169 280 177 281 180 282 177 283 173 284 113 285 121 286 136 287 136 288 121 289 129 290 136 291 129 292 145 293 133 294 125 295 140 296 140 297 125 298 117 299 140 300 117 301 109 302 21 303 13 304 0 305 0 306 13 307 5 308 0 309 5 310 9 311 9 312 17 313 0 314 0 315 17 316 25 317 0 318 25 319 40 320 40 321 25 322 33 323 40 324 33 325 49 326 173 327 165 328 180 329 180 330 165 331 157 332 180 333 157 334 140 335 140 336 157 337 149 338 140 339 149 340 133 341 85 342 44 343 93 344 93 345 44 346 140 347 93 348 140 349 101 350 101 351 140 352 109 353 85 354 77 355 44 356 44 357 77 358 69 359 44 360 69 361 61 362 61 363 53 364 44 365 44 366 53 367 37 368 44 369 37 370 0 371 0 372 37 373 29 374 0 375 29 376 21 377 140 378 141 379 180 380 180 381 141 382 181 383 44 384 45 385 140 386 140 387 45 388 141 389 0 390 1 391 44 392 44 393 1 394 45 395 40 396 41 397 0 398 0 399 41 400 1 401 136 402 137 403 40 404 40 405 137 406 41 407 180 408 181 409 136 410 136 411 181 412 137 413 170 414 162 415 181 416 181 417 162 418 154 419 181 420 154 421 137 422 137 423 154 424 146 425 137 426 146 427 130 428 130 429 122 430 137 431 137 432 122 433 114 434 137 435 114 436 106 437 106 438 98 439 137 440 137 441 98 442 90 443 137 444 90 445 41 446 41 447 90 448 82 449 82 450 74 451 41 452 41 453 74 454 66 455 41 456 66 457 58 458 166 459 174 460 181 461 181 462 174 463 178 464 181 465 178 466 170 467 141 468 150 469 181 470 181 471 150 472 158 473 181 474 158 475 166 476 58 477 50 478 41 479 41 480 50 481 34 482 41 483 34 484 1 485 1 486 34 487 26 488 1 489 26 490 18 491 18 492 10 493 1 494 1 495 10 496 6 497 1 498 6 499 14 500 14 501 22 502 1 503 1 504 22 505 30 506 1 507 30 508 45 509 45 510 30 511 38 512 38 513 54 514 45 515 45 516 54 517 62 518 45 519 62 520 70 521 94 522 141 523 86 524 86 525 141 526 45 527 86 528 45 529 78 530 78 531 45 532 70 533 94 534 102 535 141 536 141 537 102 538 110 539 141 540 110 541 118 542 118 543 126 544 141 545 141 546 126 547 134 548 141 549 134 550 150 551 179 552 178 553 174 554 179 555 174 556 175 557 175 558 174 559 166 560 175 561 166 562 167 563 167 564 166 565 158 566 167 567 158 568 159 569 159 570 158 571 150 572 159 573 150 574 151 575 151 576 150 577 134 578 151 579 134 580 135 581 135 582 134 583 126 584 135 585 126 586 127 587 127 588 126 589 118 590 127 591 118 592 119 593 119 594 118 595 110 596 119 597 110 598 111 599 111 600 110 601 102 602 111 603 102 604 103 605 103 606 102 607 94 608 103 609 94 610 95 611 95 612 94 613 86 614 95 615 86 616 87 617 87 618 86 619 78 620 87 621 78 622 79 623 79 624 78 625 70 626 79 627 70 628 71 629 71 630 70 631 62 632 71 633 62 634 63 635 63 636 62 637 54 638 63 639 54 640 55 641 55 642 54 643 38 644 55 645 38 646 39 647 39 648 38 649 30 650 39 651 30 652 31 653 31 654 30 655 22 656 31 657 22 658 23 659 23 660 22 661 14 662 23 663 14 664 15 665 15 666 14 667 6 668 15 669 6 670 7 671 7 672 6 673 10 674 7 675 10 676 11 677 11 678 10 679 18 680 11 681 18 682 19 683 19 684 18 685 26 686 19 687 26 688 27 689 27 690 26 691 34 692 27 693 34 694 35 695 35 696 34 697 50 698 35 699 50 700 51 701 51 702 50 703 58 704 51 705 58 706 59 707 59 708 58 709 66 710 59 711 66 712 67 713 67 714 66 715 74 716 67 717 74 718 75 719 75 720 74 721 82 722 75 723 82 724 83 725 83 726 82 727 90 728 83 729 90 730 91 731 91 732 90 733 98 734 91 735 98 736 99 737 99 738 98 739 106 740 99 741 106 742 107 743 107 744 106 745 114 746 107 747 114 748 115 749 115 750 114 751 122 752 115 753 122 754 123 755 123 756 122 757 130 758 123 759 130 760 131 761 131 762 130 763 146 764 131 765 146 766 147 767 147 768 146 769 154 770 147 771 154 772 155 773 155 774 154 775 162 776 155 777 162 778 163 779 163 780 162 781 170 782 163 783 170 784 171 785 171 786 170 787 178 788 171 789 178 790 179 791 67 792 42 793 59 794 59 795 42 796 51 797 91 798 138 799 83 800 83 801 138 802 42 803 83 804 42 805 75 806 75 807 42 808 67 809 91 810 99 811 138 812 138 813 99 814 107 815 138 816 107 817 115 818 138 819 147 820 182 821 182 822 147 823 155 824 182 825 155 826 163 827 163 828 171 829 182 830 182 831 171 832 179 833 182 834 179 835 175 836 115 837 123 838 138 839 138 840 123 841 131 842 138 843 131 844 147 845 135 846 127 847 142 848 142 849 127 850 119 851 142 852 119 853 111 854 23 855 15 856 2 857 2 858 15 859 7 860 2 861 7 862 11 863 11 864 19 865 2 866 2 867 19 868 27 869 2 870 27 871 42 872 42 873 27 874 35 875 42 876 35 877 51 878 175 879 167 880 182 881 182 882 167 883 159 884 182 885 159 886 142 887 142 888 159 889 151 890 142 891 151 892 135 893 87 894 46 895 95 896 95 897 46 898 142 899 95 900 142 901 103 902 103 903 142 904 111 905 87 906 79 907 46 908 46 909 79 910 71 911 46 912 71 913 63 914 63 915 55 916 46 917 46 918 55 919 39 920 46 921 39 922 2 923 2 924 39 925 31 926 2 927 31 928 23 929 142 930 143 931 182 932 182 933 143 934 183 935 46 936 47 937 142 938 142 939 47 940 143 941 2 942 3 943 46 944 46 945 3 946 47 947 42 948 43 949 2 950 2 951 43 952 3 953 138 954 139 955 42 956 42 957 139 958 43 959 182 960 183 961 138 962 138 963 183 964 139 965 139 966 183 967 43 968 43 969 183 970 143 971 43 972 143 973 3 974 3 975 143 976 47 977 160 978 152 979 144 980 124 981 132 982 148 983 76 984 84 985 92 986 36 987 148 988 156 989 36 990 52 991 148 992 148 993 52 994 60 995 148 996 60 997 68 998 92 999 100 1000 108 1001 8 1002 4 1003 16 1004 16 1005 4 1006 144 1007 16 1008 144 1009 24 1010 24 1011 144 1012 128 1013 68 1014 76 1015 148 1016 148 1017 76 1018 92 1019 148 1020 92 1021 124 1022 124 1023 92 1024 108 1025 124 1026 108 1027 116 1028 156 1029 164 1030 36 1031 36 1032 164 1033 172 1034 36 1035 172 1036 176 1037 12 1038 20 1039 4 1040 4 1041 20 1042 28 1043 4 1044 28 1045 144 1046 144 1047 28 1048 36 1049 144 1050 36 1051 160 1052 160 1053 36 1054 176 1055 160 1056 176 1057 168 1058 80 1059 72 1060 88 1061 88 1062 72 1063 64 1064 88 1065 64 1066 96 1067 104 1068 96 1069 112 1070 112 1071 96 1072 24 1073 112 1074 24 1075 120 1076 120 1077 24 1078 128 1079 32 1080 24 1081 48 1082 48 1083 24 1084 96 1085 48 1086 96 1087 56 1088 56 1089 96 1090 64 1091</p>
        </triangles>
      </mesh>
      <extra>
        <technique profile="OpenCOLLADAMaya">
          <originalMayaNodeId>MeshShape</originalMayaNodeId>
          <double_sided>1</double_sided>
        </technique>
      </extra>
    </geometry>
  </library_geometries>
  <library_visual_scenes>
    <visual_scene id="VisualSceneNode" name="untitled">
      <node id="tskbd_panel_assembly_slot2_b03_base_Mesh" name="Mesh" type="NODE">
        <translate sid="translate">0 0 0</translate>
        <rotate sid="rotateZ">0 0 1 0</rotate>
        <rotate sid="rotateY">0 1 0 0</rotate>
        <rotate sid="rotateX">1 0 0 0</rotate>
        <scale sid="scale">1 1 1</scale>
        <instance_geometry url="#MeshShape">
          <bind_material>
            <technique_common>
              <instance_material symbol="initialShadingGroup" target="#lambert1"/>
            </technique_common>
          </bind_material>
        </instance_geometry>
        <extra>
          <technique profile="OpenCOLLADAMaya">
            <originalMayaNodeId>Mesh</originalMayaNodeId>
          </technique>
        </extra>
      </node>
    </visual_scene>
  </library_visual_scenes>
  <scene>
    <instance_visual_scene url="#VisualSceneNode"/>
  </scene>
</COLLADA>